-------------------------------------------------------------------------------
Test set: ru.diasoft.micro.archunit.ControllerOutsideAccessTest
-------------------------------------------------------------------------------
Tests run: 1, Failures: 0, Errors: 0, Skipped: 0, Time elapsed: 0.835 s - in ru.diasoft.micro.archunit.ControllerOutsideAccessTest
