-------------------------------------------------------------------------------
Test set: ru.diasoft.micro.archunit.NamingConventionTests
-------------------------------------------------------------------------------
Tests run: 2, Failures: 0, Errors: 0, Skipped: 0, Time elapsed: 4.973 s - in ru.diasoft.micro.archunit.NamingConventionTests
